simulation/qsim/Quartus_Ejercicios.msim.vcd
$comment
	File created using the following command:
		vcd file Quartus_Ejercicios.msim.vcd -direction
$end
$date
	Mon Jul 14 22:04:15 2025
$end
$version
	Questa Intel Starter FPGA Edition Version 2024.3
$end
$timescale
	1ps
$end

$scope module registro_contador_vhd_vec_tst $end
$var wire 1 ! C [2] $end
$var wire 1 " C [1] $end
$var wire 1 # C [0] $end
$var wire 1 $ clk $end
$var wire 1 % E [2] $end
$var wire 1 & E [1] $end
$var wire 1 ' E [0] $end
$var wire 1 ( ln [15] $end
$var wire 1 ) ln [14] $end
$var wire 1 * ln [13] $end
$var wire 1 + ln [12] $end
$var wire 1 , ln [11] $end
$var wire 1 - ln [10] $end
$var wire 1 . ln [9] $end
$var wire 1 / ln [8] $end
$var wire 1 0 ln [7] $end
$var wire 1 1 ln [6] $end
$var wire 1 2 ln [5] $end
$var wire 1 3 ln [4] $end
$var wire 1 4 ln [3] $end
$var wire 1 5 ln [2] $end
$var wire 1 6 ln [1] $end
$var wire 1 7 ln [0] $end
$var wire 1 8 N $end
$var wire 1 9 Q [15] $end
$var wire 1 : Q [14] $end
$var wire 1 ; Q [13] $end
$var wire 1 < Q [12] $end
$var wire 1 = Q [11] $end
$var wire 1 > Q [10] $end
$var wire 1 ? Q [9] $end
$var wire 1 @ Q [8] $end
$var wire 1 A Q [7] $end
$var wire 1 B Q [6] $end
$var wire 1 C Q [5] $end
$var wire 1 D Q [4] $end
$var wire 1 E Q [3] $end
$var wire 1 F Q [2] $end
$var wire 1 G Q [1] $end
$var wire 1 H Q [0] $end
$var wire 1 I rst $end
$var wire 1 J Y [15] $end
$var wire 1 K Y [14] $end
$var wire 1 L Y [13] $end
$var wire 1 M Y [12] $end
$var wire 1 N Y [11] $end
$var wire 1 O Y [10] $end
$var wire 1 P Y [9] $end
$var wire 1 Q Y [8] $end
$var wire 1 R Y [7] $end
$var wire 1 S Y [6] $end
$var wire 1 T Y [5] $end
$var wire 1 U Y [4] $end
$var wire 1 V Y [3] $end
$var wire 1 W Y [2] $end
$var wire 1 X Y [1] $end
$var wire 1 Y Y [0] $end
$var wire 1 Z Z $end

$scope module i1 $end
$var wire 1 [ vcc $end
$var wire 1 \ ww_devoe $end
$var wire 1 ] ww_clk $end
$var wire 1 ^ ww_rst $end
$var wire 1 _ ww_C [2] $end
$var wire 1 ` ww_C [1] $end
$var wire 1 a ww_C [0] $end
$var wire 1 b ww_E [2] $end
$var wire 1 c ww_E [1] $end
$var wire 1 d ww_E [0] $end
$var wire 1 e ww_ln [15] $end
$var wire 1 f ww_ln [14] $end
$var wire 1 g ww_ln [13] $end
$var wire 1 h ww_ln [12] $end
$var wire 1 i ww_ln [11] $end
$var wire 1 j ww_ln [10] $end
$var wire 1 k ww_ln [9] $end
$var wire 1 l ww_ln [8] $end
$var wire 1 m ww_ln [7] $end
$var wire 1 n ww_ln [6] $end
$var wire 1 o ww_ln [5] $end
$var wire 1 p ww_ln [4] $end
$var wire 1 q ww_ln [3] $end
$var wire 1 r ww_ln [2] $end
$var wire 1 s ww_ln [1] $end
$var wire 1 t ww_ln [0] $end
$var wire 1 u ww_N $end
$var wire 1 v ww_Z $end
$var wire 1 w ww_Q [15] $end
$var wire 1 x ww_Q [14] $end
$var wire 1 y ww_Q [13] $end
$var wire 1 z ww_Q [12] $end
$var wire 1 { ww_Q [11] $end
$var wire 1 | ww_Q [10] $end
$var wire 1 } ww_Q [9] $end
$var wire 1 ~ ww_Q [8] $end
$var wire 1 !! ww_Q [7] $end
$var wire 1 "! ww_Q [6] $end
$var wire 1 #! ww_Q [5] $end
$var wire 1 $! ww_Q [4] $end
$var wire 1 %! ww_Q [3] $end
$var wire 1 &! ww_Q [2] $end
$var wire 1 '! ww_Q [1] $end
$var wire 1 (! ww_Q [0] $end
$var wire 1 )! ww_Y [15] $end
$var wire 1 *! ww_Y [14] $end
$var wire 1 +! ww_Y [13] $end
$var wire 1 ,! ww_Y [12] $end
$var wire 1 -! ww_Y [11] $end
$var wire 1 .! ww_Y [10] $end
$var wire 1 /! ww_Y [9] $end
$var wire 1 0! ww_Y [8] $end
$var wire 1 1! ww_Y [7] $end
$var wire 1 2! ww_Y [6] $end
$var wire 1 3! ww_Y [5] $end
$var wire 1 4! ww_Y [4] $end
$var wire 1 5! ww_Y [3] $end
$var wire 1 6! ww_Y [2] $end
$var wire 1 7! ww_Y [1] $end
$var wire 1 8! ww_Y [0] $end
$var wire 1 9! \~QUARTUS_CREATED_ADC1~_CHSEL_bus\ [4] $end
$var wire 1 :! \~QUARTUS_CREATED_ADC1~_CHSEL_bus\ [3] $end
$var wire 1 ;! \~QUARTUS_CREATED_ADC1~_CHSEL_bus\ [2] $end
$var wire 1 <! \~QUARTUS_CREATED_ADC1~_CHSEL_bus\ [1] $end
$var wire 1 =! \~QUARTUS_CREATED_ADC1~_CHSEL_bus\ [0] $end
$var wire 1 >! \clk~inputclkctrl_INCLK_bus\ [3] $end
$var wire 1 ?! \clk~inputclkctrl_INCLK_bus\ [2] $end
$var wire 1 @! \clk~inputclkctrl_INCLK_bus\ [1] $end
$var wire 1 A! \clk~inputclkctrl_INCLK_bus\ [0] $end
$var wire 1 B! \~QUARTUS_CREATED_GND~I_combout\ $end
$var wire 1 C! \~QUARTUS_CREATED_UNVM~~busy\ $end
$var wire 1 D! \~QUARTUS_CREATED_ADC1~~eoc\ $end
$var wire 1 E! \~QUARTUS_CREATED_ADC2~~eoc\ $end
$var wire 1 F! \Q[0]~output_o\ $end
$var wire 1 G! \Q[1]~output_o\ $end
$var wire 1 H! \Q[2]~output_o\ $end
$var wire 1 I! \Q[3]~output_o\ $end
$var wire 1 J! \Q[4]~output_o\ $end
$var wire 1 K! \Q[5]~output_o\ $end
$var wire 1 L! \Q[6]~output_o\ $end
$var wire 1 M! \Q[7]~output_o\ $end
$var wire 1 N! \Q[8]~output_o\ $end
$var wire 1 O! \Q[9]~output_o\ $end
$var wire 1 P! \Q[10]~output_o\ $end
$var wire 1 Q! \Q[11]~output_o\ $end
$var wire 1 R! \Q[12]~output_o\ $end
$var wire 1 S! \Q[13]~output_o\ $end
$var wire 1 T! \Q[14]~output_o\ $end
$var wire 1 U! \Q[15]~output_o\ $end
$var wire 1 V! \Y[0]~output_o\ $end
$var wire 1 W! \Y[1]~output_o\ $end
$var wire 1 X! \Y[2]~output_o\ $end
$var wire 1 Y! \Y[3]~output_o\ $end
$var wire 1 Z! \Y[4]~output_o\ $end
$var wire 1 [! \Y[5]~output_o\ $end
$var wire 1 \! \Y[6]~output_o\ $end
$var wire 1 ]! \Y[7]~output_o\ $end
$var wire 1 ^! \Y[8]~output_o\ $end
$var wire 1 _! \Y[9]~output_o\ $end
$var wire 1 `! \Y[10]~output_o\ $end
$var wire 1 a! \Y[11]~output_o\ $end
$var wire 1 b! \Y[12]~output_o\ $end
$var wire 1 c! \Y[13]~output_o\ $end
$var wire 1 d! \Y[14]~output_o\ $end
$var wire 1 e! \Y[15]~output_o\ $end
$var wire 1 f! \N~output_o\ $end
$var wire 1 g! \Z~output_o\ $end
$var wire 1 h! \clk~input_o\ $end
$var wire 1 i! \clk~inputclkctrl_outclk\ $end
$var wire 1 j! \C[0]~input_o\ $end
$var wire 1 k! \C[1]~input_o\ $end
$var wire 1 l! \C[2]~input_o\ $end
$var wire 1 m! \temp[5]~3_combout\ $end
$var wire 1 n! \ln[1]~input_o\ $end
$var wire 1 o! \temp[5]~0_combout\ $end
$var wire 1 p! \Add0~1\ $end
$var wire 1 q! \Add0~3\ $end
$var wire 1 r! \Add0~4_combout\ $end
$var wire 1 s! \ln[2]~input_o\ $end
$var wire 1 t! \Add0~5\ $end
$var wire 1 u! \Add0~6_combout\ $end
$var wire 1 v! \ln[3]~input_o\ $end
$var wire 1 w! \ln[4]~input_o\ $end
$var wire 1 x! \ln[5]~input_o\ $end
$var wire 1 y! \ln[6]~input_o\ $end
$var wire 1 z! \ln[7]~input_o\ $end
$var wire 1 {! \temp[8]~23_combout\ $end
$var wire 1 |! \temp[5]~24_combout\ $end
$var wire 1 }! \ln[14]~input_o\ $end
$var wire 1 ~! \Add0~7\ $end
$var wire 1 !" \Add0~9\ $end
$var wire 1 "" \Add0~11\ $end
$var wire 1 #" \Add0~13\ $end
$var wire 1 $" \Add0~15\ $end
$var wire 1 %" \Add0~17\ $end
$var wire 1 &" \Add0~19\ $end
$var wire 1 '" \Add0~21\ $end
$var wire 1 (" \Add0~23\ $end
$var wire 1 )" \Add0~25\ $end
$var wire 1 *" \Add0~27\ $end
$var wire 1 +" \Add0~29\ $end
$var wire 1 ," \Add0~30_combout\ $end
$var wire 1 -" \ln[15]~input_o\ $end
$var wire 1 ." \Mux0~0_combout\ $end
$var wire 1 /" \Mux0~1_combout\ $end
$var wire 1 0" \Mux0~2_combout\ $end
$var wire 1 1" \rst~input_o\ $end
$var wire 1 2" \temp~38_combout\ $end
$var wire 1 3" \Add0~28_combout\ $end
$var wire 1 4" \temp~39_combout\ $end
$var wire 1 5" \temp~27_combout\ $end
$var wire 1 6" \ln[13]~input_o\ $end
$var wire 1 7" \Add0~26_combout\ $end
$var wire 1 8" \temp~36_combout\ $end
$var wire 1 9" \temp~37_combout\ $end
$var wire 1 :" \ln[12]~input_o\ $end
$var wire 1 ;" \Add0~24_combout\ $end
$var wire 1 <" \temp~34_combout\ $end
$var wire 1 =" \temp~35_combout\ $end
$var wire 1 >" \ln[11]~input_o\ $end
$var wire 1 ?" \Add0~22_combout\ $end
$var wire 1 @" \temp~32_combout\ $end
$var wire 1 A" \temp~33_combout\ $end
$var wire 1 B" \ln[10]~input_o\ $end
$var wire 1 C" \Add0~20_combout\ $end
$var wire 1 D" \temp~30_combout\ $end
$var wire 1 E" \temp~31_combout\ $end
$var wire 1 F" \ln[9]~input_o\ $end
$var wire 1 G" \Add0~18_combout\ $end
$var wire 1 H" \temp~28_combout\ $end
$var wire 1 I" \temp~29_combout\ $end
$var wire 1 J" \ln[8]~input_o\ $end
$var wire 1 K" \Add0~16_combout\ $end
$var wire 1 L" \temp~25_combout\ $end
$var wire 1 M" \temp~26_combout\ $end
$var wire 1 N" \temp~20_combout\ $end
$var wire 1 O" \temp~21_combout\ $end
$var wire 1 P" \Add0~14_combout\ $end
$var wire 1 Q" \temp~22_combout\ $end
$var wire 1 R" \temp~17_combout\ $end
$var wire 1 S" \temp~18_combout\ $end
$var wire 1 T" \Add0~12_combout\ $end
$var wire 1 U" \temp~19_combout\ $end
$var wire 1 V" \temp~14_combout\ $end
$var wire 1 W" \temp~15_combout\ $end
$var wire 1 X" \Add0~10_combout\ $end
$var wire 1 Y" \temp~16_combout\ $end
$var wire 1 Z" \temp~11_combout\ $end
$var wire 1 [" \temp~12_combout\ $end
$var wire 1 \" \Add0~8_combout\ $end
$var wire 1 ]" \temp~13_combout\ $end
$var wire 1 ^" \temp~8_combout\ $end
$var wire 1 _" \temp~9_combout\ $end
$var wire 1 `" \temp~10_combout\ $end
$var wire 1 a" \temp~5_combout\ $end
$var wire 1 b" \temp~6_combout\ $end
$var wire 1 c" \temp~7_combout\ $end
$var wire 1 d" \temp~1_combout\ $end
$var wire 1 e" \temp~2_combout\ $end
$var wire 1 f" \Add0~2_combout\ $end
$var wire 1 g" \temp~4_combout\ $end
$var wire 1 h" \Mux15~1_combout\ $end
$var wire 1 i" \Add0~0_combout\ $end
$var wire 1 j" \Mux15~0_combout\ $end
$var wire 1 k" \ln[0]~input_o\ $end
$var wire 1 l" \Mux15~2_combout\ $end
$var wire 1 m" \Mux15~3_combout\ $end
$var wire 1 n" \E[0]~input_o\ $end
$var wire 1 o" \E[1]~input_o\ $end
$var wire 1 p" \E[2]~input_o\ $end
$var wire 1 q" \Equal0~1_combout\ $end
$var wire 1 r" \Equal0~0_combout\ $end
$var wire 1 s" \Equal0~3_combout\ $end
$var wire 1 t" \Equal0~2_combout\ $end
$var wire 1 u" \Equal0~4_combout\ $end
$var wire 1 v" temp [15] $end
$var wire 1 w" temp [14] $end
$var wire 1 x" temp [13] $end
$var wire 1 y" temp [12] $end
$var wire 1 z" temp [11] $end
$var wire 1 {" temp [10] $end
$var wire 1 |" temp [9] $end
$var wire 1 }" temp [8] $end
$var wire 1 ~" temp [7] $end
$var wire 1 !# temp [6] $end
$var wire 1 "# temp [5] $end
$var wire 1 ## temp [4] $end
$var wire 1 $# temp [3] $end
$var wire 1 %# temp [2] $end
$var wire 1 &# temp [1] $end
$var wire 1 '# temp [0] $end
$var wire 1 (# \ALT_INV_E[0]~input_o\ $end
$var wire 1 )# \ALT_INV_E[1]~input_o\ $end
$var wire 1 *# \ALT_INV_E[2]~input_o\ $end
$upscope $end
$upscope $end
$enddefinitions $end
#0
$dumpvars
0$
08
0I
1Z
0)!
0*!
0+!
0,!
0-!
0.!
0/!
00!
01!
02!
03!
04!
05!
06!
07!
08!
1[
1\
0]
0^
0u
1v
0B!
zC!
zD!
zE!
0F!
0G!
0H!
0I!
0J!
0K!
0L!
0M!
0N!
0O!
0P!
0Q!
0R!
0S!
0T!
0U!
0V!
0W!
0X!
0Y!
0Z!
0[!
0\!
0]!
0^!
0_!
0`!
0a!
0b!
0c!
0d!
0e!
0f!
1g!
0h!
0i!
0j!
0k!
0l!
1m!
0n!
0o!
0p!
1q!
1r!
0s!
0t!
1u!
0v!
0w!
0x!
0y!
0z!
0{!
1|!
0}!
1~!
0!"
1""
0#"
1$"
0%"
1&"
0'"
1("
0)"
1*"
0+"
1,"
0-"
0."
0/"
00"
01"
12"
13"
14"
05"
06"
17"
18"
19"
0:"
1;"
1<"
1="
0>"
1?"
1@"
1A"
0B"
1C"
1D"
1E"
0F"
1G"
1H"
1I"
0J"
1K"
1L"
1M"
0N"
0O"
1P"
0Q"
0R"
0S"
1T"
0U"
0V"
0W"
1X"
0Y"
0Z"
0["
1\"
0]"
0^"
0_"
0`"
0a"
0b"
0c"
0d"
0e"
1f"
0g"
0h"
1i"
0j"
0k"
1l"
0m"
0n"
0o"
0p"
1q"
1r"
1s"
1t"
1u"
1(#
1)#
1*#
0!
0"
0#
0%
0&
0'
0(
0)
0*
0+
0,
0-
0.
0/
00
01
02
03
04
05
06
07
0_
0`
0a
0b
0c
0d
0e
0f
0g
0h
0i
0j
0k
0l
0m
0n
0o
0p
0q
0r
0s
0t
09!
0:!
0;!
0<!
0=!
0v"
0w"
0x"
0y"
0z"
0{"
0|"
0}"
0~"
0!#
0"#
0##
0$#
0%#
0&#
0'#
1>!
1?!
1@!
0A!
09
0:
0;
0<
0=
0>
0?
0@
0A
0B
0C
0D
0E
0F
0G
0H
0J
0K
0L
0M
0N
0O
0P
0Q
0R
0S
0T
0U
0V
0W
0X
0Y
0w
0x
0y
0z
0{
0|
0}
0~
0!!
0"!
0#!
0$!
0%!
0&!
0'!
0(!
$end
#20000
1$
1]
1h!
1A!
1i!
#40000
0$
1)
1*
1-
1.
1/
13
14
15
16
0]
1s
1r
1q
1p
1l
1k
1j
1g
1f
0h!
1n!
1s!
1v!
1w!
1J"
1F"
1B"
16"
1}!
0A!
0i!
#60000
1$
1]
1h!
1A!
1i!
#80000
0$
0]
0h!
0A!
0i!
#100000
1$
1]
1h!
1A!
1i!
#120000
0$
1!
1#
1&
1'
0]
1a
1_
1d
1c
0h!
1j!
1l!
1n"
1o"
0)#
0(#
0A!
0l"
1o!
0f"
0r!
0u!
1{!
0\"
0X"
0T"
0P"
0K"
0G"
0C"
0?"
0;"
07"
03"
0,"
15"
1m"
zM!
zL!
zK!
zJ!
zI!
zH!
zG!
zF!
zU!
zT!
zS!
zR!
zQ!
zP!
zO!
zN!
z!!
z"!
z#!
z$!
z%!
z&!
z'!
z(!
zw
zx
zy
zz
z{
z|
z}
z~
0<"
0="
0@"
0D"
0E"
0L"
0M"
1N"
1R"
1V"
1Z"
1^"
1a"
1d"
0m"
zH
zG
zF
zE
zD
zC
zB
zA
z@
z?
z>
z=
z<
z;
z:
z9
0i!
1e"
1b"
1_"
1["
1M"
1E"
0A"
1]"
1`"
1c"
1g"
#140000
1$
1]
1h!
1A!
1i!
1w"
1x"
1{"
1|"
1}"
1##
1$#
1%#
1&#
1d!
1c!
1`!
1_!
1^!
1Z!
1Y!
1X!
1W!
1f"
1r!
0r"
1u!
1\"
0q"
1K"
1G"
1C"
0t"
17"
13"
0s"
1*!
1+!
1.!
1/!
10!
14!
15!
16!
17!
1X
1W
1V
1U
1Q
1P
1O
1L
1K
0u"
0g!
0v
0Z
#160000
0$
0]
0h!
0A!
0i!
#180000
1$
1]
1h!
1A!
1i!
#200000
0$
0]
0h!
0A!
0i!
#220000
1$
1]
1h!
1A!
1i!
#240000
0$
0#
0&
0'
1"
0]
0a
1`
0d
0c
0h!
0j!
1k!
0n"
0o"
1)#
1(#
0A!
0|!
1."
1h"
0f"
0q!
0r!
1t!
0u!
0~!
0{!
0\"
1!"
1X"
1T"
1P"
0K"
1%"
0G"
0&"
0C"
1'"
1?"
1;"
07"
0*"
03"
1+"
1,"
0N"
0R"
0V"
0Z"
0^"
0a"
0d"
0M!
0L!
0K!
1J!
1I!
1H!
1G!
0F!
0U!
1T!
1S!
0R!
0Q!
1P!
1O!
1N!
0!!
0"!
0#!
1$!
1%!
1&!
1'!
0(!
0w
1x
1y
0z
0{
1|
1}
1~
0e"
1W"
0,"
13"
0?"
0("
1C"
1G"
0X"
0""
04"
0E"
0M"
1\"
1u!
1r!
1/"
02"
08"
1A"
1D"
0H"
0H
1G
1F
1E
1D
0C
0B
0A
1@
1?
1>
0=
0<
1;
1:
09
0i!
1E"
09"
0T"
1#"
0;"
1)"
14"
10"
1Y"
0g"
17"
0P"
0$"
1K"
#260000
1$
1]
1h!
1A!
1i!
1v"
0x"
1z"
0}"
1"#
0&#
1e!
1U!
1f!
0c!
0S!
1a!
1Q!
0^!
0N!
1[!
1K!
0W!
0G!
1f"
1q!
0b"
0h"
1X"
1S"
0K"
0I"
1?"
1<"
07"
04"
1,"
1)!
1w
1u
0+!
0y
1-!
1{
00!
0~
13!
1#!
07!
0'!
0X
1T
0Q
1N
0L
1J
0G
1C
0@
1=
0;
19
18
1="
1U"
0c"
0r!
#280000
0$
0]
0h!
0A!
0i!
#300000
1$
1]
1h!
1A!
1i!
0w"
1y"
0|"
1!#
0%#
0d!
0T!
1R!
1b!
0_!
0O!
1\!
1L!
0X!
0H!
1r!
0t!
0_"
1T"
1O"
0G"
0D"
1;"
03"
0."
19"
0*!
0x
1z
1,!
0/!
0}
12!
1"!
06!
0&!
0W
1S
0P
1M
0K
0F
1B
0?
1<
0:
0/"
0E"
1Q"
0`"
0u!
00"
#320000
0$
0]
0h!
0A!
0i!
#340000
1$
1]
1h!
1A!
1i!
0v"
1x"
0{"
1~"
0$#
0e!
0U!
0f!
1c!
1S!
0`!
0P!
1]!
1M!
0Y!
0I!
1u!
1~!
0["
1P"
1L"
0C"
0A"
17"
14"
0,"
1r"
0)!
0w
0u
1+!
1y
0.!
0|
11!
1!!
05!
0%!
0V
1R
0O
1L
0J
0E
1A
0>
1;
09
08
1M"
0]"
0\"
#360000
0$
0]
0h!
0A!
0i!
#380000
1$
1]
1h!
1A!
1i!
1w"
0z"
1}"
0##
1d!
1T!
0a!
0Q!
1^!
1N!
0Z!
0J!
1\"
0!"
0W"
1K"
1I"
0?"
0<"
13"
1."
1*!
1x
0-!
0{
10!
1~
04!
0$!
0U
1Q
0N
1K
0D
1@
0=
1:
1/"
0="
0Y"
0X"
10"
#400000
0$
0]
0h!
0A!
0i!
#420000
1$
1]
1h!
1A!
1i!
1v"
0y"
1|"
0"#
1e!
1U!
1f!
0R!
0b!
1_!
1O!
0[!
0K!
1X"
1""
0S"
1G"
1D"
0;"
09"
1,"
0r"
1)!
1w
1u
0z
0,!
1/!
1}
03!
0#!
0T
1P
0M
1J
0C
1?
0<
19
18
1E"
0U"
0T"
#440000
0$
0]
0h!
0A!
0i!
#460000
1$
1]
1h!
1A!
1i!
0x"
1{"
0!#
0c!
0S!
1`!
1P!
0\!
0L!
1T"
0#"
0O"
1q"
1C"
1A"
07"
04"
0+!
0y
1.!
1|
02!
0"!
0S
1O
0L
0B
1>
0;
0Q"
0P"
#480000
0$
0)
0*
0-
0.
0/
03
04
05
06
0]
0s
0r
0q
0p
0l
0k
0j
0g
0f
0h!
0n!
0s!
0v!
0w!
0J"
0F"
0B"
06"
0}!
0A!
0i!
#500000
1$
1]
1h!
1A!
1i!
0w"
1z"
0~"
0d!
0T!
1a!
1Q!
0]!
0M!
1P"
1$"
0L"
1?"
1<"
03"
0."
0*!
0x
1-!
1{
01!
0!!
0R
1N
0K
0A
1=
0:
0/"
1="
0M"
0K"
00"
#520000
0$
0]
0h!
0A!
0i!
#540000
1$
1]
1h!
1A!
1i!
0v"
1y"
0}"
0e!
0U!
0f!
1R!
1b!
0^!
0N!
1K"
0%"
0I"
1;"
19"
0,"
1r"
0)!
0w
0u
1z
1,!
00!
0~
0Q
1M
0J
0@
1<
09
08
0G"
#560000
0$
0]
0h!
0A!
0i!
#580000
1$
1]
1h!
1A!
1i!
1x"
0|"
1c!
1S!
0_!
0O!
1G"
1&"
0D"
17"
14"
1+!
1y
0/!
0}
0P
1L
0?
1;
0E"
0C"
#600000
0$
0]
0h!
0A!
0i!
#620000
1$
1]
1h!
1A!
1i!
1w"
0{"
1d!
1T!
0`!
0P!
1C"
0'"
0A"
1t"
13"
1."
1*!
1x
0.!
0|
0O
1K
0>
1:
1/"
0?"
10"
#640000
0$
1#
0]
1a
0h!
1j!
0A!
0o!
0f"
0r!
0u!
1{!
0\"
0X"
0T"
0P"
0K"
0G"
0C"
1?"
1("
0;"
07"
03"
1,"
0/"
1N"
1R"
1V"
1Z"
1^"
1a"
1d"
00"
1;"
0)"
04"
18"
1@"
1D"
1H"
1L"
0N"
1O"
0R"
1S"
0V"
1W"
0Z"
1["
0^"
1_"
0a"
1b"
0d"
1e"
0i!
1g"
0e"
1c"
0b"
1`"
0_"
1]"
0["
1Y"
0W"
1U"
0S"
1Q"
0O"
1E"
1A"
17"
1*"
13"
0+"
0Q"
0U"
0Y"
0]"
0`"
0c"
0g"
0,"
#660000
1$
1]
1h!
1A!
1i!
0w"
1{"
0d!
0T!
1`!
1P!
1C"
1I"
0t"
03"
0."
09"
0*!
0x
1.!
1|
1O
0K
1>
0:
#680000
0$
0]
0h!
0A!
0i!
#700000
1$
1]
1h!
1A!
1i!
0x"
1|"
0c!
0S!
1_!
1O!
1G"
1M"
07"
0="
0+!
0y
1/!
1}
1P
0L
1?
0;
#720000
0$
0]
0h!
0A!
0i!
#740000
1$
1]
1h!
1A!
1i!
0y"
1}"
0R!
0b!
1^!
1N!
1K"
1N"
0;"
0A"
0z
0,!
10!
1~
1@
0<
1Q
0M
1O"
1Q"
#760000
0$
0]
0h!
0A!
0i!
#780000
1$
1]
1h!
1A!
1i!
0z"
1~"
0a!
0Q!
1]!
1M!
1P"
1R"
0?"
0E"
1s"
0-!
0{
11!
1!!
1R
0N
1A
0=
1S"
1U"
#800000
0$
0]
0h!
0A!
0i!
#820000
1$
1]
1h!
1A!
1i!
0{"
1!#
0`!
0P!
1\!
1L!
1T"
1V"
0q"
0C"
0I"
0.!
0|
12!
1"!
1S
0O
1B
0>
1W"
1Y"
#840000
0$
0]
0h!
0A!
0i!
#860000
1$
1]
1h!
1A!
1i!
0|"
1"#
0_!
0O!
1[!
1K!
1X"
1Z"
0G"
0M"
0/!
0}
13!
1#!
1T
0P
1C
0?
1["
1]"
#880000
0$
0]
0h!
0A!
0i!
#900000
1$
1]
1h!
1A!
1i!
0}"
1##
0^!
0N!
1Z!
1J!
1\"
1^"
0K"
0N"
00!
0~
14!
1$!
1U
0Q
1D
0@
0O"
1_"
1`"
0Q"
#920000
0$
0#
0"
0!
0]
0a
0`
0_
0h!
0j!
0k!
0l!
0A!
1|!
1l"
1f"
1r!
1u!
0{!
0\"
1!"
0X"
0""
0T"
1#"
0P"
0$"
1K"
1G"
1C"
1?"
1;"
17"
13"
1,"
05"
1N"
0^"
0_"
1O"
0K"
1%"
1P"
1T"
1X"
1="
1E"
1M"
12"
19"
1A"
1I"
0i!
14"
0G"
0&"
0L"
1Q"
0`"
0M"
0C"
1'"
0H"
0I"
0?"
0("
0D"
0E"
0;"
1)"
0@"
0A"
07"
0*"
0<"
0="
03"
1+"
08"
09"
0,"
04"
#940000
1$
1]
1h!
1A!
1i!
#960000
0$
0]
0h!
0A!
0i!
#980000
1$
1]
1h!
1A!
1i!
